<?xml version="1.0" encoding="UTF-8" standalone="no"?>
<!-- Created with Inkscape (http://www.inkscape.org/) -->

<svg
   xmlns:dc="http://purl.org/dc/elements/1.1/"
   xmlns:cc="http://creativecommons.org/ns#"
   xmlns:rdf="http://www.w3.org/1999/02/22-rdf-syntax-ns#"
   xmlns:svg="http://www.w3.org/2000/svg"
   xmlns="http://www.w3.org/2000/svg"
   xmlns:sodipodi="http://sodipodi.sourceforge.net/DTD/sodipodi-0.dtd"
   xmlns:inkscape="http://www.inkscape.org/namespaces/inkscape"
   width="210mm"
   height="297mm"
   viewBox="0 0 210 297"
   version="1.1"
   id="svg8"
   inkscape:version="0.92.3 (2405546, 2018-03-11)"
   sodipodi:docname="workflows.svg"
   inkscape:export-filename="/home/schwalbe/Calculations/talks/phd-defense/web/static/images/puzzel-start-v2.png"
   inkscape:export-xdpi="96"
   inkscape:export-ydpi="96">
  <defs
     id="defs2" />
  <sodipodi:namedview
     id="base"
     pagecolor="#ffffff"
     bordercolor="#666666"
     borderopacity="1.0"
     inkscape:pageopacity="0.0"
     inkscape:pageshadow="2"
     inkscape:zoom="0.5"
     inkscape:cx="396.01379"
     inkscape:cy="419.33505"
     inkscape:document-units="mm"
     inkscape:current-layer="layer1"
     showgrid="false"
     inkscape:window-width="1920"
     inkscape:window-height="1136"
     inkscape:window-x="0"
     inkscape:window-y="27"
     inkscape:window-maximized="1" />
  <metadata
     id="metadata5">
    <rdf:RDF>
      <cc:Work
         rdf:about="">
        <dc:format>image/svg+xml</dc:format>
        <dc:type
           rdf:resource="http://purl.org/dc/dcmitype/StillImage" />
        <dc:title></dc:title>
      </cc:Work>
    </rdf:RDF>
  </metadata>
  <g
     inkscape:label="Layer 1"
     inkscape:groupmode="layer"
     id="layer1">
    <path
       style="opacity:1;fill:#cc6699;fill-opacity:1;stroke:#cc6699;stroke-width:2.5675149;stroke-linecap:square;stroke-linejoin:miter;stroke-miterlimit:4;stroke-dasharray:none;stroke-dashoffset:0;stroke-opacity:1;paint-order:fill markers stroke"
       d="m 110.48697,113.85733 a 10.644506,8.3068402 0 0 0 -10.644433,8.30694 10.644506,8.3068402 0 0 0 0.672623,2.89113 H 87.893207 v 11.54828 a 10.644506,8.3068402 0 0 0 -0.5459,-0.0152 10.644506,8.3068402 0 0 0 -10.644403,8.30693 10.644506,8.3068402 0 0 0 10.644403,8.30672 10.644506,8.3068402 0 0 0 0.5459,-0.0215 v 11.63973 h 12.247953 a 10.644506,8.3068402 0 0 0 -0.147193,1.315 10.644506,8.3068402 0 0 0 10.644413,8.30693 10.644506,8.3068402 0 0 0 10.64442,-8.30693 10.644506,8.3068402 0 0 0 -0.13971,-1.315 h 13.95904 v -11.41667 a 10.644506,8.3068402 0 0 1 -0.43735,0.0121 10.644506,8.3068402 0 0 1 -10.64442,-8.30672 10.644506,8.3068402 0 0 1 10.64442,-8.30694 10.644506,8.3068402 0 0 1 0.43735,0.0171 v -11.76376 h -14.65018 a 10.644506,8.3068402 0 0 0 0.67944,-2.89114 10.644506,8.3068402 0 0 0 -10.64442,-8.30694 z"
       id="path836-4"
       inkscape:connector-curvature="0"
       inkscape:export-xdpi="96"
       inkscape:export-ydpi="96" />
    <text
       xml:space="preserve"
       style="font-style:normal;font-variant:normal;font-weight:bold;font-stretch:normal;font-size:11.34840488px;line-height:1.25;font-family:sans-serif;-inkscape-font-specification:'sans-serif, Bold';font-variant-ligatures:normal;font-variant-caps:normal;font-variant-numeric:normal;font-feature-settings:normal;text-align:start;letter-spacing:0px;word-spacing:0px;writing-mode:lr-tb;text-anchor:start;fill:#ffffff;fill-opacity:1;stroke:none;stroke-width:0.15198755"
       x="99.941673"
       y="147.86084"
       id="text1104-6-1"
       transform="scale(0.99190929,1.0081567)"
       inkscape:export-xdpi="96"
       inkscape:export-ydpi="96"><tspan
         sodipodi:role="line"
         id="tspan1102-2-9"
         x="99.941673"
         y="147.86084"
         style="font-style:normal;font-variant:normal;font-weight:bold;font-stretch:normal;font-size:11.34840488px;font-family:sans-serif;-inkscape-font-specification:'sans-serif, Bold';font-variant-ligatures:normal;font-variant-caps:normal;font-variant-numeric:normal;font-feature-settings:normal;text-align:start;writing-mode:lr-tb;text-anchor:start;fill:#ffffff;stroke-width:0.15198755">WF</tspan></text>
    <path
       style="opacity:1;fill:#ffffff;fill-opacity:1;stroke:#cc6699;stroke-width:2.5675149;stroke-linecap:square;stroke-linejoin:miter;stroke-miterlimit:4;stroke-dasharray:none;stroke-dashoffset:0;stroke-opacity:1;paint-order:fill markers stroke"
       d="m 110.86097,74.092327 a 10.644506,8.3068402 0 0 0 -10.64444,8.306937 10.644506,8.3068402 0 0 0 0.67263,2.891134 H 88.267197 v 11.548276 a 10.644506,8.3068402 0 0 0 -0.54589,-0.01521 10.644506,8.3068402 0 0 0 -10.64441,8.306936 10.644506,8.3068402 0 0 0 10.64441,8.30673 10.644506,8.3068402 0 0 0 0.54589,-0.0215 v 11.63973 h 12.247963 a 10.644506,8.3068402 0 0 0 -0.1472,1.31501 10.644506,8.3068402 0 0 0 10.64443,8.30693 10.644506,8.3068402 0 0 0 10.64441,-8.30693 10.644506,8.3068402 0 0 0 -0.1397,-1.31501 h 13.95903 v -11.41668 a 10.644506,8.3068402 0 0 1 -0.43735,0.0121 10.644506,8.3068402 0 0 1 -10.64442,-8.30671 10.644506,8.3068402 0 0 1 10.64442,-8.306955 10.644506,8.3068402 0 0 1 0.43735,0.01708 V 85.290457 h -14.65018 a 10.644506,8.3068402 0 0 0 0.67944,-2.891132 10.644506,8.3068402 0 0 0 -10.64442,-8.306935 z"
       id="path836-4-7"
       inkscape:connector-curvature="0"
       inkscape:export-xdpi="96"
       inkscape:export-ydpi="96" />
    <text
       xml:space="preserve"
       style="font-style:normal;font-variant:normal;font-weight:bold;font-stretch:normal;font-size:11.34840488px;line-height:1.25;font-family:sans-serif;-inkscape-font-specification:'sans-serif, Bold';font-variant-ligatures:normal;font-variant-caps:normal;font-variant-numeric:normal;font-feature-settings:normal;text-align:start;letter-spacing:0px;word-spacing:0px;writing-mode:lr-tb;text-anchor:start;fill:#cc6699;fill-opacity:1;stroke:none;stroke-width:0.15198755"
       x="103.80176"
       y="88.779442"
       id="text1104-6-1-1"
       transform="scale(0.9919093,1.0081567)"
       inkscape:export-xdpi="96"
       inkscape:export-ydpi="96"><tspan
         sodipodi:role="line"
         id="tspan1102-2-9-5"
         x="103.80176"
         y="88.779442"
         style="font-style:normal;font-variant:normal;font-weight:bold;font-stretch:normal;font-size:11.34840488px;font-family:sans-serif;-inkscape-font-specification:'sans-serif, Bold';font-variant-ligatures:normal;font-variant-caps:normal;font-variant-numeric:normal;font-feature-settings:normal;text-align:start;writing-mode:lr-tb;text-anchor:start;fill:#cc6699;fill-opacity:1;stroke-width:0.15198755">FF</tspan></text>
    <text
       xml:space="preserve"
       style="font-style:normal;font-variant:normal;font-weight:bold;font-stretch:normal;font-size:11.34840488px;line-height:1.25;font-family:sans-serif;-inkscape-font-specification:'sans-serif, Bold';font-variant-ligatures:normal;font-variant-caps:normal;font-variant-numeric:normal;font-feature-settings:normal;text-align:start;letter-spacing:0px;word-spacing:0px;writing-mode:lr-tb;text-anchor:start;fill:#cc6699;fill-opacity:1;stroke:none;stroke-width:0.15198755"
       x="81.163643"
       y="108.44372"
       id="text1104-6-1-1-8"
       transform="scale(0.9919093,1.0081567)"
       inkscape:export-xdpi="96"
       inkscape:export-ydpi="96"><tspan
         sodipodi:role="line"
         id="tspan1102-2-9-5-8"
         x="81.163643"
         y="108.44372"
         style="font-style:normal;font-variant:normal;font-weight:bold;font-stretch:normal;font-size:11.34840488px;font-family:sans-serif;-inkscape-font-specification:'sans-serif, Bold';font-variant-ligatures:normal;font-variant-caps:normal;font-variant-numeric:normal;font-feature-settings:normal;text-align:start;writing-mode:lr-tb;text-anchor:start;fill:#cc6699;fill-opacity:1;stroke-width:0.15198755">DFT</tspan></text>
    <text
       xml:space="preserve"
       style="font-style:normal;font-variant:normal;font-weight:bold;font-stretch:normal;font-size:11.34840488px;line-height:1.25;font-family:sans-serif;-inkscape-font-specification:'sans-serif, Bold';font-variant-ligatures:normal;font-variant-caps:normal;font-variant-numeric:normal;font-feature-settings:normal;text-align:start;letter-spacing:0px;word-spacing:0px;writing-mode:lr-tb;text-anchor:start;fill:#cc6699;fill-opacity:1;stroke:none;stroke-width:0.15198755"
       x="100.68204"
       y="120.27255"
       id="text1104-6-1-1-8-4"
       transform="scale(0.9919093,1.0081567)"
       inkscape:export-xdpi="96"
       inkscape:export-ydpi="96"><tspan
         sodipodi:role="line"
         id="tspan1102-2-9-5-8-5"
         x="100.68204"
         y="120.27255"
         style="font-style:normal;font-variant:normal;font-weight:bold;font-stretch:normal;font-size:11.34840488px;font-family:sans-serif;-inkscape-font-specification:'sans-serif, Bold';font-variant-ligatures:normal;font-variant-caps:normal;font-variant-numeric:normal;font-feature-settings:normal;text-align:start;writing-mode:lr-tb;text-anchor:start;fill:#cc6699;fill-opacity:1;stroke-width:0.15198755">SIC</tspan></text>
  </g>
</svg>
